D:\Doccuments\javaProjects\CIIR\4\src\main\java\by\sommelier\models\Place.java
D:\Doccuments\javaProjects\CIIR\4\src\main\java\by\sommelier\servlets\ProductServlet.java
D:\Doccuments\javaProjects\CIIR\4\src\main\java\by\sommelier\servlets\HomeServlet.java
D:\Doccuments\javaProjects\CIIR\4\src\main\java\by\sommelier\control\CrudDAO.java
D:\Doccuments\javaProjects\CIIR\4\src\main\java\by\sommelier\models\Distributor.java
D:\Doccuments\javaProjects\CIIR\4\src\main\java\by\sommelier\control\PlaceDAO.java
D:\Doccuments\javaProjects\CIIR\4\src\main\java\by\sommelier\control\UserDAO.java
D:\Doccuments\javaProjects\CIIR\4\src\main\java\by\sommelier\models\User.java
D:\Doccuments\javaProjects\CIIR\4\src\main\java\by\sommelier\servlets\PlaceServlet.java
D:\Doccuments\javaProjects\CIIR\4\src\main\java\by\sommelier\servlets\UsersServlet.java
D:\Doccuments\javaProjects\CIIR\4\src\main\java\by\sommelier\servlets\DistributorServlet.java
D:\Doccuments\javaProjects\CIIR\4\src\main\java\by\sommelier\control\DistributorDAO.java
D:\Doccuments\javaProjects\CIIR\4\src\main\java\by\sommelier\control\ProductDAO.java
D:\Doccuments\javaProjects\CIIR\4\src\main\java\by\sommelier\models\Product.java
